Geocomputation with R
…
The list of helpful functions is in the helpfile of this function - ?summarise. The whole power of summarise() is revealed when its combined with the group_by() function. They allow to summary subsets of data. For example, we want to get the total population and number of countries on every continent:

# data summary by groups
world_continents = world %>% 
  group_by(continent) %>% 
  summarise(pop = sum(pop, na.rm = TRUE), country_n = n())
world_continents
#> Simple feature collection with 8 features and 3 fields
#> geometry type:  GEOMETRY
#> dimension:      XY
#> bbox:           xmin: -180 ymin: -90 xmax: 180 ymax: 83.64513
#> epsg (SRID):    4326
#> proj4string:    +proj=longlat +datum=WGS84 +no_defs
#> # A tibble: 8 x 4
#>    continent      pop country_n              geom
#>        <chr>    <dbl>     <int>  <simple_feature>
#> 1     Africa 1.15e+09        51 <MULTIPOLYGON...>
#> 2 Antarctica 0.00e+00         1 <MULTIPOLYGON...>
#> 3       Asia 4.31e+09        47 <MULTIPOLYGON...>
#> 4     Europe 7.39e+08        39 <MULTIPOLYGON...>
#> # ... with 4 more rows
…
