Geocomputation with R
…
# sort variables
## by name
world_continents %>% 
  arrange(continent)
#> Simple feature collection with 8 features and 3 fields
#> geometry type:  GEOMETRY
#> dimension:      XY
#> bbox:           xmin: -180 ymin: -90 xmax: 180 ymax: 83.64513
#> epsg (SRID):    4326
#> proj4string:    +proj=longlat +datum=WGS84 +no_defs
#> # A tibble: 8 x 4
#>    continent      pop country_n              geom
#>        <chr>    <dbl>     <int>  <simple_feature>
#> 1     Africa 1.15e+09        51 <MULTIPOLYGON...>
#> 2 Antarctica 0.00e+00         1 <MULTIPOLYGON...>
#> 3       Asia 4.31e+09        47 <MULTIPOLYGON...>
#> 4     Europe 7.39e+08        39 <MULTIPOLYGON...>
#> # ... with 4 more rows
## by population (in descending order)
world_continents %>% 
  arrange(-pop)
#> Simple feature collection with 8 features and 3 fields
#> geometry type:  GEOMETRY
#> dimension:      XY
#> bbox:           xmin: -180 ymin: -90 xmax: 180 ymax: 83.64513
#> epsg (SRID):    4326
#> proj4string:    +proj=longlat +datum=WGS84 +no_defs
#> # A tibble: 8 x 4
#>       continent      pop country_n              geom
#>           <chr>    <dbl>     <int>  <simple_feature>
#> 1          Asia 4.31e+09        47 <MULTIPOLYGON...>
#> 2        Africa 1.15e+09        51 <MULTIPOLYGON...>
#> 3        Europe 7.39e+08        39 <MULTIPOLYGON...>
#> 4 North America 5.65e+08        18 <MULTIPOLYGON...>
#> # ... with 4 more rows
…
